﻿## Interface: 40300
## Author: Elv
## Version: 3.0.1
## Title: |cff1784d1ElvUI|r
## Notes: User Interface replacement AddOn for World of Warcraft.
## SavedVariables: ElvData
## OptionalDeps: BigWigs, DBM-Core, DXE, Recount, Omen, Skada
## X-oUF: ElvUF

developer\load_developer.xml
libs\load_libs.xml
locales\load_locales.xml
media\load_media.xml
init.lua
config\load_config.xml
core\load_core.xml
layout\load_layout.xml
modules\load_modules.xml